EESchema Schematic File Version 2
LIBS:power
LIBS:device
LIBS:transistors
LIBS:conn
LIBS:linear
LIBS:regul
LIBS:74xx
LIBS:cmos4000
LIBS:adc-dac
LIBS:memory
LIBS:xilinx
LIBS:microcontrollers
LIBS:dsp
LIBS:microchip
LIBS:analog_switches
LIBS:motorola
LIBS:texas
LIBS:intel
LIBS:audio
LIBS:interface
LIBS:digital-audio
LIBS:philips
LIBS:display
LIBS:cypress
LIBS:siliconi
LIBS:opto
LIBS:atmel
LIBS:contrib
LIBS:valves
LIBS:main-cache
EELAYER 25 0
EELAYER END
$Descr A4 11693 8268
encoding utf-8
Sheet 1 1
Title ""
Date ""
Rev ""
Comp ""
Comment1 ""
Comment2 ""
Comment3 ""
Comment4 ""
$EndDescr
$Comp
L ATMEGA8-16AU U5
U 1 1 59225AE8
P 8300 3000
F 0 "U5" H 7550 4200 50  0000 L BNN
F 1 "ATMEGA8-16AU" H 8800 1450 50  0000 L BNN
F 2 "Housings_QFP:TQFP-32_7x7mm_Pitch0.8mm" H 8300 3000 50  0001 C CIN
F 3 "" H 8300 3000 50  0001 C CNN
	1    8300 3000
	1    0    0    -1  
$EndComp
$Comp
L Crystal_Small Y2
U 1 1 59225B15
P 7150 2800
F 0 "Y2" H 7150 2900 50  0000 C CNN
F 1 "14.7456MHz" H 7150 2700 50  0000 C CNN
F 2 "Crystals:Crystal_HC49-U_Vertical" H 7150 2800 50  0001 C CNN
F 3 "" H 7150 2800 50  0001 C CNN
	1    7150 2800
	0    1    1    0   
$EndComp
$Comp
L AVR-ISP-10 CON1
U 1 1 59226076
P 6150 5800
F 0 "CON1" H 5980 6130 50  0000 C CNN
F 1 "AVR-ISP-10" H 5810 5470 50  0000 L BNN
F 2 "Pin_Headers:Pin_Header_Angled_2x05" V 5400 5850 50  0001 C CNN
F 3 "" H 6150 5800 50  0001 C CNN
	1    6150 5800
	1    0    0    -1  
$EndComp
$Comp
L C_Small C18
U 1 1 5922612D
P 7150 3200
F 0 "C18" H 7160 3270 50  0000 L CNN
F 1 "22" H 7160 3120 50  0000 L CNN
F 2 "Capacitors_ThroughHole:C_Disc_D3_P2.5" H 7150 3200 50  0001 C CNN
F 3 "" H 7150 3200 50  0001 C CNN
	1    7150 3200
	1    0    0    -1  
$EndComp
$Comp
L C_Small C15
U 1 1 59226214
P 6750 3200
F 0 "C15" H 6760 3270 50  0000 L CNN
F 1 "22" H 6760 3120 50  0000 L CNN
F 2 "Capacitors_ThroughHole:C_Disc_D3_P2.5" H 6750 3200 50  0001 C CNN
F 3 "" H 6750 3200 50  0001 C CNN
	1    6750 3200
	1    0    0    -1  
$EndComp
$Comp
L GND #PWR01
U 1 1 59226272
P 6950 3500
F 0 "#PWR01" H 6950 3250 50  0001 C CNN
F 1 "GND" H 6950 3350 50  0000 C CNN
F 2 "" H 6950 3500 50  0001 C CNN
F 3 "" H 6950 3500 50  0001 C CNN
	1    6950 3500
	1    0    0    -1  
$EndComp
Text Label 6850 5600 2    60   ~ 0
VTG
Text Label 9900 2900 2    60   ~ 0
RST_ADC
$Comp
L R_Small R7
U 1 1 59226453
P 7150 5600
F 0 "R7" H 7180 5620 50  0000 L CNN
F 1 "220K" H 7180 5560 50  0000 L CNN
F 2 "Resistors_SMD:R_1206_HandSoldering" H 7150 5600 50  0001 C CNN
F 3 "" H 7150 5600 50  0001 C CNN
	1    7150 5600
	0    1    1    0   
$EndComp
$Comp
L R_Small R9
U 1 1 592264A4
P 7350 5800
F 0 "R9" H 7380 5820 50  0000 L CNN
F 1 "100K" H 7380 5760 50  0000 L CNN
F 2 "Resistors_SMD:R_1206_HandSoldering" H 7350 5800 50  0001 C CNN
F 3 "" H 7350 5800 50  0001 C CNN
	1    7350 5800
	1    0    0    -1  
$EndComp
$Comp
L GND #PWR02
U 1 1 59226523
P 6550 6150
F 0 "#PWR02" H 6550 5900 50  0001 C CNN
F 1 "GND" H 6550 6000 50  0000 C CNN
F 2 "" H 6550 6150 50  0001 C CNN
F 3 "" H 6550 6150 50  0001 C CNN
	1    6550 6150
	1    0    0    -1  
$EndComp
Text Label 7400 5600 0    60   ~ 0
RST_ADC
Text Label 9900 3000 2    60   ~ 0
TARGET_RST
$Comp
L D_Schottky D2
U 1 1 592267F6
P 8000 5600
F 0 "D2" H 8000 5700 50  0000 C CNN
F 1 "D_Schottky" H 8000 5500 50  0000 C CNN
F 2 "Diodes_SMD:SMA_Handsoldering" H 8000 5600 50  0001 C CNN
F 3 "" H 8000 5600 50  0001 C CNN
	1    8000 5600
	-1   0    0    1   
$EndComp
Text Label 8900 5600 2    60   ~ 0
TARGET_RST
Text Label 9900 2700 2    60   ~ 0
ONEMHZ
$Comp
L GND #PWR03
U 1 1 59226C14
P 1400 2000
F 0 "#PWR03" H 1400 1750 50  0001 C CNN
F 1 "GND" H 1400 1850 50  0000 C CNN
F 2 "" H 1400 2000 50  0001 C CNN
F 3 "" H 1400 2000 50  0001 C CNN
	1    1400 2000
	1    0    0    -1  
$EndComp
$Comp
L L_Small L1
U 1 1 59226CD5
P 1700 1500
F 0 "L1" H 1730 1540 50  0000 L CNN
F 1 "L_Small" H 1730 1460 50  0000 L CNN
F 2 "Inductors:NR4018_HandSoldering" H 1700 1500 50  0001 C CNN
F 3 "" H 1700 1500 50  0001 C CNN
	1    1700 1500
	0    1    1    0   
$EndComp
$Comp
L +5V #PWR04
U 1 1 59226E55
P 2550 1500
F 0 "#PWR04" H 2550 1350 50  0001 C CNN
F 1 "+5V" H 2550 1640 50  0000 C CNN
F 2 "" H 2550 1500 50  0001 C CNN
F 3 "" H 2550 1500 50  0001 C CNN
	1    2550 1500
	0    1    1    0   
$EndComp
$Comp
L C_Small C19
U 1 1 59227063
P 8550 1400
F 0 "C19" H 8560 1470 50  0000 L CNN
F 1 "0.1" H 8560 1320 50  0000 L CNN
F 2 "Capacitors_SMD:C_1206_HandSoldering" H 8550 1400 50  0001 C CNN
F 3 "" H 8550 1400 50  0001 C CNN
	1    8550 1400
	0    1    1    0   
$EndComp
$Comp
L GND #PWR05
U 1 1 5922716D
P 8750 1250
F 0 "#PWR05" H 8750 1000 50  0001 C CNN
F 1 "GND" H 8750 1100 50  0000 C CNN
F 2 "" H 8750 1250 50  0001 C CNN
F 3 "" H 8750 1250 50  0001 C CNN
	1    8750 1250
	-1   0    0    1   
$EndComp
$Comp
L +5V #PWR06
U 1 1 592272F9
P 8250 1250
F 0 "#PWR06" H 8250 1100 50  0001 C CNN
F 1 "+5V" H 8250 1390 50  0000 C CNN
F 2 "" H 8250 1250 50  0001 C CNN
F 3 "" H 8250 1250 50  0001 C CNN
	1    8250 1250
	1    0    0    -1  
$EndComp
$Comp
L +5V #PWR07
U 1 1 5922746E
P 7300 1250
F 0 "#PWR07" H 7300 1100 50  0001 C CNN
F 1 "+5V" H 7300 1390 50  0000 C CNN
F 2 "" H 7300 1250 50  0001 C CNN
F 3 "" H 7300 1250 50  0001 C CNN
	1    7300 1250
	1    0    0    -1  
$EndComp
$Comp
L R_Small R8
U 1 1 592274CD
P 7300 1450
F 0 "R8" H 7330 1470 50  0000 L CNN
F 1 "100" H 7330 1410 50  0000 L CNN
F 2 "Resistors_SMD:R_1206_HandSoldering" H 7300 1450 50  0001 C CNN
F 3 "" H 7300 1450 50  0001 C CNN
	1    7300 1450
	-1   0    0    1   
$EndComp
$Comp
L GND #PWR08
U 1 1 5922756F
P 6900 1250
F 0 "#PWR08" H 6900 1000 50  0001 C CNN
F 1 "GND" H 6900 1100 50  0000 C CNN
F 2 "" H 6900 1250 50  0001 C CNN
F 3 "" H 6900 1250 50  0001 C CNN
	1    6900 1250
	-1   0    0    1   
$EndComp
$Comp
L C_Small C16
U 1 1 592275A7
P 7100 1650
F 0 "C16" H 7110 1720 50  0000 L CNN
F 1 "0.1" H 7110 1570 50  0000 L CNN
F 2 "Capacitors_SMD:C_1206_HandSoldering" H 7100 1650 50  0001 C CNN
F 3 "" H 7100 1650 50  0001 C CNN
	1    7100 1650
	0    1    1    0   
$EndComp
$Comp
L C_Small C17
U 1 1 592277B2
P 7100 2300
F 0 "C17" H 7110 2370 50  0000 L CNN
F 1 "0.1" H 7110 2220 50  0000 L CNN
F 2 "Capacitors_SMD:C_1206_HandSoldering" H 7100 2300 50  0001 C CNN
F 3 "" H 7100 2300 50  0001 C CNN
	1    7100 2300
	0    1    1    0   
$EndComp
$Comp
L GND #PWR09
U 1 1 592279F3
P 7300 2500
F 0 "#PWR09" H 7300 2250 50  0001 C CNN
F 1 "GND" H 7300 2350 50  0000 C CNN
F 2 "" H 7300 2500 50  0001 C CNN
F 3 "" H 7300 2500 50  0001 C CNN
	1    7300 2500
	1    0    0    -1  
$EndComp
$Comp
L R_Small R6
U 1 1 59227B66
P 6600 1450
F 0 "R6" H 6630 1470 50  0000 L CNN
F 1 "6.2K" H 6630 1410 50  0000 L CNN
F 2 "Resistors_SMD:R_1206_HandSoldering" H 6600 1450 50  0001 C CNN
F 3 "" H 6600 1450 50  0001 C CNN
	1    6600 1450
	-1   0    0    1   
$EndComp
$Comp
L +5V #PWR010
U 1 1 59227BE6
P 6600 1250
F 0 "#PWR010" H 6600 1100 50  0001 C CNN
F 1 "+5V" H 6600 1390 50  0000 C CNN
F 2 "" H 6600 1250 50  0001 C CNN
F 3 "" H 6600 1250 50  0001 C CNN
	1    6600 1250
	1    0    0    -1  
$EndComp
$Comp
L CONN_01X03 J1
U 1 1 59227E98
P 6200 1700
F 0 "J1" H 6200 1900 50  0000 C CNN
F 1 "selfPGM" V 6300 1700 50  0000 C CNN
F 2 "Pin_Headers:Pin_Header_Straight_1x03" H 6200 1700 50  0001 C CNN
F 3 "" H 6200 1700 50  0001 C CNN
	1    6200 1700
	0    -1   -1   0   
$EndComp
Text Label 6750 2300 2    60   ~ 0
ucTX
Text Label 9900 3600 2    60   ~ 0
ucTX
$Comp
L GND #PWR011
U 1 1 59228934
P 1900 700
F 0 "#PWR011" H 1900 450 50  0001 C CNN
F 1 "GND" H 1900 550 50  0000 C CNN
F 2 "" H 1900 700 50  0001 C CNN
F 3 "" H 1900 700 50  0001 C CNN
	1    1900 700 
	-1   0    0    1   
$EndComp
$Comp
L R_Small R1
U 1 1 59228C4C
P 2000 1300
F 0 "R1" H 2030 1320 50  0000 L CNN
F 1 "27" H 2030 1260 50  0000 L CNN
F 2 "Resistors_SMD:R_1206_HandSoldering" H 2000 1300 50  0001 C CNN
F 3 "" H 2000 1300 50  0001 C CNN
	1    2000 1300
	0    -1   -1   0   
$EndComp
$Comp
L R_Small R2
U 1 1 59228D56
P 2400 1400
F 0 "R2" H 2430 1420 50  0000 L CNN
F 1 "27" H 2430 1360 50  0000 L CNN
F 2 "Resistors_SMD:R_1206_HandSoldering" H 2400 1400 50  0001 C CNN
F 3 "" H 2400 1400 50  0001 C CNN
	1    2400 1400
	0    -1   -1   0   
$EndComp
Text Label 2900 1400 2    60   ~ 0
usbDM
Text Label 2900 1200 2    60   ~ 0
usbDP
$Comp
L SN74LVC2T45 U1
U 1 1 592293C9
P 3250 5050
F 0 "U1" H 3250 4800 60  0000 C CNN
F 1 "SN74LVC2T45" H 3250 5300 60  0000 C CNN
F 2 "Housings_SSOP:MSOP-8_3x3mm_Pitch0.65mm" H 3250 5050 60  0001 C CNN
F 3 "" H 3250 5050 60  0001 C CNN
	1    3250 5050
	1    0    0    -1  
$EndComp
$Comp
L SN74LVC2T45 U2
U 1 1 59229570
P 3250 5750
F 0 "U2" H 3250 5500 60  0000 C CNN
F 1 "SN74LVC2T45" H 3250 6000 60  0000 C CNN
F 2 "Housings_SSOP:MSOP-8_3x3mm_Pitch0.65mm" H 3250 5750 60  0001 C CNN
F 3 "" H 3250 5750 60  0001 C CNN
	1    3250 5750
	1    0    0    -1  
$EndComp
$Comp
L C_Small C7
U 1 1 592298AE
P 3250 4600
F 0 "C7" H 3260 4670 50  0000 L CNN
F 1 "0.1" H 3260 4520 50  0000 L CNN
F 2 "Capacitors_SMD:C_1206_HandSoldering" H 3250 4600 50  0001 C CNN
F 3 "" H 3250 4600 50  0001 C CNN
	1    3250 4600
	0    1    1    0   
$EndComp
$Comp
L C_Small C8
U 1 1 592299AC
P 3250 6150
F 0 "C8" H 3260 6220 50  0000 L CNN
F 1 "0.1" H 3260 6070 50  0000 L CNN
F 2 "Capacitors_SMD:C_1206_HandSoldering" H 3250 6150 50  0001 C CNN
F 3 "" H 3250 6150 50  0001 C CNN
	1    3250 6150
	0    1    1    0   
$EndComp
$Comp
L GND #PWR012
U 1 1 59229C10
P 2700 6300
F 0 "#PWR012" H 2700 6050 50  0001 C CNN
F 1 "GND" H 2700 6150 50  0000 C CNN
F 2 "" H 2700 6300 50  0001 C CNN
F 3 "" H 2700 6300 50  0001 C CNN
	1    2700 6300
	1    0    0    -1  
$EndComp
$Comp
L +5V #PWR013
U 1 1 59229DDC
P 2600 4400
F 0 "#PWR013" H 2600 4250 50  0001 C CNN
F 1 "+5V" H 2600 4540 50  0000 C CNN
F 2 "" H 2600 4400 50  0001 C CNN
F 3 "" H 2600 4400 50  0001 C CNN
	1    2600 4400
	1    0    0    -1  
$EndComp
$Comp
L C_Small C3
U 1 1 5922A088
P 2400 4700
F 0 "C3" H 2410 4770 50  0000 L CNN
F 1 "0.1" H 2410 4620 50  0000 L CNN
F 2 "Capacitors_SMD:C_1206_HandSoldering" H 2400 4700 50  0001 C CNN
F 3 "" H 2400 4700 50  0001 C CNN
	1    2400 4700
	0    1    1    0   
$EndComp
$Comp
L C_Small C4
U 1 1 5922A156
P 2400 5400
F 0 "C4" H 2410 5470 50  0000 L CNN
F 1 "0.1" H 2410 5320 50  0000 L CNN
F 2 "Capacitors_SMD:C_1206_HandSoldering" H 2400 5400 50  0001 C CNN
F 3 "" H 2400 5400 50  0001 C CNN
	1    2400 5400
	0    1    1    0   
$EndComp
Text Label 4000 5000 0    60   ~ 0
tgt_MOSI
Text Label 4200 5100 0    60   ~ 0
tgt_1MHZ
Text Label 4050 5900 0    60   ~ 0
tgt_RST
Text Label 4500 5800 0    60   ~ 0
tgt_SCK
Text Label 2200 5100 0    60   ~ 0
ONEMHZ
Text Label 2200 5800 0    60   ~ 0
TARGET_RST
Text Label 3500 4600 0    60   ~ 0
VTG
$Comp
L Jumper_NO_Small JP1
U 1 1 5922B2AA
P 4000 4250
F 0 "JP1" H 4000 4330 50  0000 C CNN
F 1 "ISPPW" H 4010 4190 50  0000 C CNN
F 2 "Pin_Headers:Pin_Header_Straight_1x02" H 4000 4250 50  0001 C CNN
F 3 "" H 4000 4250 50  0001 C CNN
	1    4000 4250
	1    0    0    -1  
$EndComp
Text Label 9900 2800 2    60   ~ 0
TARGET_MOSI
Text Label 2200 5000 0    60   ~ 0
TARGET_MOSI
Text Label 9900 3100 2    60   ~ 0
TARGET_SCK
Text Label 2200 5700 0    60   ~ 0
TARGET_SCK
$Comp
L SN74LVC1T45 U3
U 1 1 5922C792
P 3250 7050
F 0 "U3" H 3250 6900 60  0000 C CNN
F 1 "SN74LVC1T45" H 3250 7300 60  0000 C CNN
F 2 "TO_SOT_Packages_SMD:SOT-23-6" H 3250 7050 60  0001 C CNN
F 3 "" H 3250 7050 60  0001 C CNN
	1    3250 7050
	1    0    0    -1  
$EndComp
$Comp
L +5V #PWR014
U 1 1 5922C9A3
P 2700 6700
F 0 "#PWR014" H 2700 6550 50  0001 C CNN
F 1 "+5V" H 2700 6840 50  0000 C CNN
F 2 "" H 2700 6700 50  0001 C CNN
F 3 "" H 2700 6700 50  0001 C CNN
	1    2700 6700
	1    0    0    -1  
$EndComp
$Comp
L C_Small C5
U 1 1 5922CAC5
P 2500 6800
F 0 "C5" H 2510 6870 50  0000 L CNN
F 1 "0.1" H 2510 6720 50  0000 L CNN
F 2 "Capacitors_SMD:C_1206_HandSoldering" H 2500 6800 50  0001 C CNN
F 3 "" H 2500 6800 50  0001 C CNN
	1    2500 6800
	0    -1   -1   0   
$EndComp
Wire Wire Line
	7400 2900 7150 2900
Wire Wire Line
	7150 2900 7150 3100
Wire Wire Line
	7400 2700 7150 2700
Wire Wire Line
	7150 2700 7150 2500
Wire Wire Line
	7150 2500 6750 2500
Wire Wire Line
	6750 2500 6750 3100
Wire Wire Line
	7150 3400 7150 3300
Wire Wire Line
	6750 3400 7150 3400
Wire Wire Line
	6950 3400 6950 3500
Wire Wire Line
	6750 3300 6750 3400
Connection ~ 6950 3400
Wire Wire Line
	6200 5600 7050 5600
Wire Wire Line
	9900 2900 9300 2900
Wire Wire Line
	7250 5600 7850 5600
Wire Wire Line
	7350 5600 7350 5700
Wire Wire Line
	6200 5700 6550 5700
Wire Wire Line
	6550 5700 6550 6150
Wire Wire Line
	6200 5800 6550 5800
Connection ~ 6550 5800
Wire Wire Line
	6200 5900 6550 5900
Connection ~ 6550 5900
Wire Wire Line
	6200 6000 7350 6000
Connection ~ 6550 6000
Wire Wire Line
	7350 6000 7350 5900
Wire Wire Line
	9900 3000 9300 3000
Connection ~ 7350 5600
Wire Wire Line
	8900 5600 8150 5600
Wire Wire Line
	9900 2700 9300 2700
Wire Wire Line
	1300 1500 1600 1500
Wire Wire Line
	1400 1500 1400 1600
Connection ~ 1400 1500
Wire Wire Line
	1900 1600 1900 1500
Wire Wire Line
	1800 1500 2550 1500
Wire Wire Line
	1900 1800 1900 1900
Connection ~ 1900 1500
Wire Wire Line
	8350 1400 8350 1700
Wire Wire Line
	8250 1250 8250 1700
Wire Wire Line
	8250 1400 8450 1400
Wire Wire Line
	8650 1400 9600 1400
Connection ~ 8250 1400
Wire Wire Line
	7300 1250 7300 1350
Wire Wire Line
	7000 1650 6900 1650
Wire Wire Line
	6900 1250 6900 2300
Wire Wire Line
	7200 2300 7400 2300
Wire Wire Line
	6900 2300 7000 2300
Connection ~ 6900 1650
Wire Wire Line
	7400 2200 7300 2200
Wire Wire Line
	7300 2200 7300 1550
Wire Wire Line
	7200 1650 7300 1650
Connection ~ 7300 1650
Wire Wire Line
	7300 2500 7300 2400
Wire Wire Line
	7300 2400 7400 2400
Wire Wire Line
	6600 1350 6600 1250
Wire Wire Line
	6300 2000 7400 2000
Wire Wire Line
	6600 2000 6600 1550
Wire Wire Line
	6300 2000 6300 1900
Connection ~ 6600 2000
Wire Wire Line
	6750 2300 6100 2300
Wire Wire Line
	6100 2300 6100 1900
Wire Wire Line
	9900 3600 9300 3600
Wire Wire Line
	1300 1200 1900 1200
Wire Wire Line
	1900 1200 1900 700 
Wire Wire Line
	1900 1300 1300 1300
Wire Wire Line
	2300 1400 1300 1400
Wire Wire Line
	2500 1400 3000 1400
Wire Wire Line
	2200 1200 3100 1200
Wire Wire Line
	2200 1200 2200 1300
Wire Wire Line
	2200 1300 2100 1300
Wire Wire Line
	3800 5600 3700 5600
Wire Wire Line
	3800 4250 3800 6900
Wire Wire Line
	3800 4900 3700 4900
Wire Wire Line
	3350 4600 4300 4600
Connection ~ 3800 4900
Wire Wire Line
	3800 6150 3350 6150
Connection ~ 3800 5600
Wire Wire Line
	2100 6150 3150 6150
Wire Wire Line
	2700 4600 2700 6300
Wire Wire Line
	2700 5900 2800 5900
Wire Wire Line
	3150 4600 2700 4600
Wire Wire Line
	2700 5200 2800 5200
Connection ~ 2700 6150
Connection ~ 2700 5200
Connection ~ 2700 5900
Wire Wire Line
	2800 4900 2600 4900
Wire Wire Line
	2600 4400 2600 5600
Wire Wire Line
	2600 5600 2800 5600
Connection ~ 2600 4900
Wire Wire Line
	3700 5200 3900 5200
Wire Wire Line
	3900 4450 3900 5900
Wire Wire Line
	2600 4450 4200 4450
Connection ~ 2600 4450
Wire Wire Line
	3900 5900 3700 5900
Connection ~ 3900 5200
Wire Wire Line
	2300 5400 2100 5400
Wire Wire Line
	2100 4700 2100 6150
Wire Wire Line
	2300 4700 2100 4700
Connection ~ 2100 5400
Wire Wire Line
	2500 5400 2600 5400
Connection ~ 2600 5400
Wire Wire Line
	2500 4700 2600 4700
Connection ~ 2600 4700
Wire Wire Line
	5950 5600 4000 5600
Wire Wire Line
	4000 5600 4000 5000
Wire Wire Line
	4000 5000 3700 5000
Wire Wire Line
	5950 5700 4200 5700
Wire Wire Line
	4200 5700 4200 5100
Wire Wire Line
	4200 5100 3700 5100
Wire Wire Line
	4100 5800 4100 5700
Wire Wire Line
	4100 5700 3700 5700
Wire Wire Line
	4000 5900 4000 5800
Wire Wire Line
	4000 5800 3700 5800
Wire Wire Line
	2200 5100 2800 5100
Wire Wire Line
	2200 5000 2800 5000
Wire Wire Line
	2200 5800 2800 5800
Wire Wire Line
	2200 5700 2800 5700
Wire Wire Line
	3800 4250 3900 4250
Connection ~ 3800 4600
Wire Wire Line
	4100 4250 4200 4250
Wire Wire Line
	4200 4250 4200 4450
Connection ~ 3900 4450
Wire Wire Line
	9900 2800 9300 2800
Wire Wire Line
	9900 3100 9300 3100
Wire Wire Line
	3800 6900 3700 6900
Connection ~ 3800 6150
Wire Wire Line
	2800 6900 2700 6900
Wire Wire Line
	2700 6900 2700 6700
Wire Wire Line
	2600 6800 2700 6800
Connection ~ 2700 6800
$Comp
L GND #PWR015
U 1 1 5922D16A
P 2700 7400
F 0 "#PWR015" H 2700 7150 50  0001 C CNN
F 1 "GND" H 2700 7250 50  0000 C CNN
F 2 "" H 2700 7400 50  0001 C CNN
F 3 "" H 2700 7400 50  0001 C CNN
	1    2700 7400
	1    0    0    -1  
$EndComp
Wire Wire Line
	2300 7000 2800 7000
Wire Wire Line
	2700 7000 2700 7400
Wire Wire Line
	2400 6800 2300 6800
Wire Wire Line
	2300 6800 2300 7000
Connection ~ 2700 7000
Wire Wire Line
	3700 7000 3800 7000
Wire Wire Line
	3800 7000 3800 7300
Wire Wire Line
	3800 7300 2700 7300
Connection ~ 2700 7300
Wire Wire Line
	3700 7100 4200 7100
Wire Wire Line
	4200 7100 4200 6000
Wire Wire Line
	4200 6000 5950 6000
$Comp
L LED_ALT D1
U 1 1 5922D564
P 4450 4600
F 0 "D1" H 4450 4700 50  0000 C CNN
F 1 "tgtPW" H 4450 4500 50  0000 C CNN
F 2 "LEDs:LED-5MM" H 4450 4600 50  0001 C CNN
F 3 "" H 4450 4600 50  0001 C CNN
	1    4450 4600
	-1   0    0    1   
$EndComp
$Comp
L R_Small R5
U 1 1 5922D728
P 4800 4600
F 0 "R5" H 4830 4620 50  0000 L CNN
F 1 "1K" H 4830 4560 50  0000 L CNN
F 2 "Resistors_SMD:R_1206_HandSoldering" H 4800 4600 50  0001 C CNN
F 3 "" H 4800 4600 50  0001 C CNN
	1    4800 4600
	0    1    1    0   
$EndComp
Wire Wire Line
	4600 4600 4700 4600
$Comp
L GND #PWR016
U 1 1 5922D9C0
P 5000 4700
F 0 "#PWR016" H 5000 4450 50  0001 C CNN
F 1 "GND" H 5000 4550 50  0000 C CNN
F 2 "" H 5000 4700 50  0001 C CNN
F 3 "" H 5000 4700 50  0001 C CNN
	1    5000 4700
	1    0    0    -1  
$EndComp
Wire Wire Line
	4900 4600 5000 4600
Wire Wire Line
	5000 4600 5000 4700
Wire Wire Line
	9900 3200 9300 3200
Text Label 9900 3200 2    60   ~ 0
TARGET_MISO
Wire Wire Line
	2200 7100 2800 7100
Text Label 2200 7100 0    60   ~ 0
TARGET_MISO
NoConn ~ 9300 2000
NoConn ~ 9300 2100
NoConn ~ 9300 3800
NoConn ~ 9300 3900
NoConn ~ 9300 4000
NoConn ~ 9300 4100
NoConn ~ 9300 4200
NoConn ~ 9300 4300
Wire Wire Line
	9900 3700 9300 3700
Text Label 9900 3700 2    60   ~ 0
ucRX
NoConn ~ 9300 3300
NoConn ~ 9300 3400
$Comp
L R_Small R10
U 1 1 5922EA98
P 9600 2000
F 0 "R10" H 9630 2020 50  0000 L CNN
F 1 "1K" H 9630 1960 50  0000 L CNN
F 2 "Resistors_SMD:R_1206_HandSoldering" H 9600 2000 50  0001 C CNN
F 3 "" H 9600 2000 50  0001 C CNN
	1    9600 2000
	-1   0    0    1   
$EndComp
$Comp
L LED_ALT D3
U 1 1 5922EBC3
P 9600 1650
F 0 "D3" H 9600 1750 50  0000 C CNN
F 1 "ACT" H 9600 1550 50  0000 C CNN
F 2 "LEDs:LED-5MM" H 9600 1650 50  0001 C CNN
F 3 "" H 9600 1650 50  0001 C CNN
	1    9600 1650
	0    1    1    0   
$EndComp
Wire Wire Line
	9600 1400 9600 1500
Wire Wire Line
	9600 1900 9600 1800
Wire Wire Line
	9600 2100 9600 2200
Wire Wire Line
	9600 2200 9300 2200
Wire Wire Line
	9900 2300 9300 2300
Wire Wire Line
	9900 2400 9300 2400
Wire Wire Line
	9900 2500 9300 2500
Text Label 9900 2300 2    60   ~ 0
ucMOSI
Text Label 9900 2400 2    60   ~ 0
ucMISO
Text Label 9900 2500 2    60   ~ 0
ucSCK
$Comp
L GND #PWR017
U 1 1 5922F4ED
P 8250 4800
F 0 "#PWR017" H 8250 4550 50  0001 C CNN
F 1 "GND" H 8250 4650 50  0000 C CNN
F 2 "" H 8250 4800 50  0001 C CNN
F 3 "" H 8250 4800 50  0001 C CNN
	1    8250 4800
	1    0    0    -1  
$EndComp
Wire Wire Line
	8250 4800 8250 4600
Wire Wire Line
	8350 4600 8350 4700
Wire Wire Line
	8350 4700 8250 4700
Connection ~ 8250 4700
$Comp
L FT232BM U4
U 1 1 5922FFF7
P 4300 2750
F 0 "U4" H 3850 2050 60  0000 C CNN
F 1 "FT232BM" V 4000 2350 60  0000 C CNN
F 2 "Housings_QFP:TQFP-32_7x7mm_Pitch0.8mm" H 4300 2750 60  0001 C CNN
F 3 "" H 4300 2750 60  0001 C CNN
	1    4300 2750
	1    0    0    -1  
$EndComp
Wire Wire Line
	3700 1900 3000 1900
Wire Wire Line
	3000 1900 3000 1400
Wire Wire Line
	3000 2000 3700 2000
Wire Wire Line
	3100 1200 3100 2000
$Comp
L R_Small R3
U 1 1 5923041E
P 2900 2000
F 0 "R3" H 2930 2020 50  0000 L CNN
F 1 "1.5K" H 2930 1960 50  0000 L CNN
F 2 "Resistors_SMD:R_1206_HandSoldering" H 2900 2000 50  0001 C CNN
F 3 "" H 2900 2000 50  0001 C CNN
	1    2900 2000
	0    -1   -1   0   
$EndComp
Wire Wire Line
	3700 2100 2700 2100
Wire Wire Line
	2700 2100 2700 2000
Wire Wire Line
	2700 2000 2800 2000
Connection ~ 3100 2000
$Comp
L C_Small C10
U 1 1 59230823
P 3600 1600
F 0 "C10" H 3610 1670 50  0000 L CNN
F 1 "0.033" H 3610 1520 50  0000 L CNN
F 2 "Capacitors_ThroughHole:C_Disc_D6_P5" H 3600 1600 50  0001 C CNN
F 3 "" H 3600 1600 50  0001 C CNN
	1    3600 1600
	1    0    0    -1  
$EndComp
Wire Wire Line
	3700 1800 3600 1800
Wire Wire Line
	3600 1800 3600 1700
$Comp
L C_Small C11
U 1 1 59230AD3
P 3950 1150
F 0 "C11" H 3960 1220 50  0000 L CNN
F 1 "0.1" H 3960 1070 50  0000 L CNN
F 2 "Capacitors_SMD:C_1206_HandSoldering" H 3950 1150 50  0001 C CNN
F 3 "" H 3950 1150 50  0001 C CNN
	1    3950 1150
	0    1    1    0   
$EndComp
$Comp
L R_Small R4
U 1 1 59230BE9
P 4150 950
F 0 "R4" H 4180 970 50  0000 L CNN
F 1 "330" H 4180 910 50  0000 L CNN
F 2 "Resistors_SMD:R_1206_HandSoldering" H 4150 950 50  0001 C CNN
F 3 "" H 4150 950 50  0001 C CNN
	1    4150 950 
	1    0    0    -1  
$EndComp
Wire Wire Line
	4150 1250 4150 1050
Wire Wire Line
	4050 1150 4150 1150
Connection ~ 4150 1150
$Comp
L +5V #PWR018
U 1 1 59230EFA
P 4050 600
F 0 "#PWR018" H 4050 450 50  0001 C CNN
F 1 "+5V" H 4050 740 50  0000 C CNN
F 2 "" H 4050 600 50  0001 C CNN
F 3 "" H 4050 600 50  0001 C CNN
	1    4050 600 
	0    -1   -1   0   
$EndComp
Wire Wire Line
	4150 850  4150 600 
Wire Wire Line
	4050 600  4450 600 
Wire Wire Line
	4350 600  4350 1250
Connection ~ 4150 600 
Wire Wire Line
	4250 1250 4250 1150
Wire Wire Line
	4250 1150 4450 1150
Connection ~ 4350 1150
Wire Wire Line
	4450 1150 4450 1250
$Comp
L C_Small C12
U 1 1 59231333
P 4550 600
F 0 "C12" H 4560 670 50  0000 L CNN
F 1 "0.1" H 4560 520 50  0000 L CNN
F 2 "Capacitors_SMD:C_1206_HandSoldering" H 4550 600 50  0001 C CNN
F 3 "" H 4550 600 50  0001 C CNN
	1    4550 600 
	0    1    1    0   
$EndComp
$Comp
L C_Small C13
U 1 1 592313F7
P 4550 800
F 0 "C13" H 4560 870 50  0000 L CNN
F 1 "0.1" H 4560 720 50  0000 L CNN
F 2 "Capacitors_SMD:C_1206_HandSoldering" H 4550 800 50  0001 C CNN
F 3 "" H 4550 800 50  0001 C CNN
	1    4550 800 
	0    1    1    0   
$EndComp
$Comp
L C_Small C14
U 1 1 59231498
P 4550 1000
F 0 "C14" H 4560 1070 50  0000 L CNN
F 1 "0.1" H 4560 920 50  0000 L CNN
F 2 "Capacitors_SMD:C_1206_HandSoldering" H 4550 1000 50  0001 C CNN
F 3 "" H 4550 1000 50  0001 C CNN
	1    4550 1000
	0    1    1    0   
$EndComp
Connection ~ 4350 600 
Wire Wire Line
	4450 800  4350 800 
Connection ~ 4350 800 
Wire Wire Line
	4450 1000 4350 1000
Connection ~ 4350 1000
$Comp
L GND #PWR019
U 1 1 5923181F
P 3300 1250
F 0 "#PWR019" H 3300 1000 50  0001 C CNN
F 1 "GND" H 3300 1100 50  0000 C CNN
F 2 "" H 3300 1250 50  0001 C CNN
F 3 "" H 3300 1250 50  0001 C CNN
	1    3300 1250
	1    0    0    -1  
$EndComp
Wire Wire Line
	3850 1150 3300 1150
Wire Wire Line
	3300 1150 3300 1250
Wire Wire Line
	3600 1000 3600 1500
Connection ~ 3600 1150
$Comp
L GND #PWR020
U 1 1 59231AA3
P 4750 1100
F 0 "#PWR020" H 4750 850 50  0001 C CNN
F 1 "GND" H 4750 950 50  0000 C CNN
F 2 "" H 4750 1100 50  0001 C CNN
F 3 "" H 4750 1100 50  0001 C CNN
	1    4750 1100
	1    0    0    -1  
$EndComp
Wire Wire Line
	4650 1000 4750 1000
Wire Wire Line
	4750 600  4750 1100
Wire Wire Line
	4650 800  4750 800 
Connection ~ 4750 1000
Wire Wire Line
	4650 600  4750 600 
Connection ~ 4750 800 
$Comp
L GND #PWR021
U 1 1 59231E89
P 4300 3800
F 0 "#PWR021" H 4300 3550 50  0001 C CNN
F 1 "GND" H 4300 3650 50  0000 C CNN
F 2 "" H 4300 3800 50  0001 C CNN
F 3 "" H 4300 3800 50  0001 C CNN
	1    4300 3800
	1    0    0    -1  
$EndComp
Wire Wire Line
	4300 3600 4300 3800
Wire Wire Line
	4400 3700 4400 3600
Wire Wire Line
	3600 3700 5000 3700
Connection ~ 4300 3700
Wire Wire Line
	4200 3600 4200 3700
Wire Wire Line
	4900 1800 6000 1800
Wire Wire Line
	6000 1800 6000 2000
Wire Wire Line
	6000 2000 6200 2000
Wire Wire Line
	6200 2000 6200 1900
Wire Wire Line
	5500 1900 4900 1900
Text Label 5500 1900 2    60   ~ 0
ucRX
Wire Wire Line
	4900 2300 5000 2300
Wire Wire Line
	5000 2300 5000 2000
Wire Wire Line
	4900 2000 5500 2000
Connection ~ 5000 2000
Text Label 5500 2000 2    60   ~ 0
ucSCK
Wire Wire Line
	5500 2100 4900 2100
Wire Wire Line
	5500 2200 4900 2200
Text Label 5500 2100 2    60   ~ 0
ucMISO
Text Label 5500 2200 2    60   ~ 0
ucMOSI
NoConn ~ 4900 2600
NoConn ~ 4900 2500
NoConn ~ 4900 2400
NoConn ~ 4900 3100
NoConn ~ 4900 3000
NoConn ~ 3700 2500
NoConn ~ 3700 2600
NoConn ~ 3700 2700
NoConn ~ 4900 2700
NoConn ~ 4900 2800
Wire Wire Line
	4900 2900 5000 2900
Wire Wire Line
	5000 2900 5000 3700
Connection ~ 4400 3700
Wire Wire Line
	2300 2200 3700 2200
Wire Wire Line
	2500 2200 2500 1500
Connection ~ 2500 1500
Wire Wire Line
	3700 2800 3600 2800
Wire Wire Line
	3600 2800 3600 3700
Connection ~ 4200 3700
$Comp
L Crystal_Small Y1
U 1 1 5923408D
P 3150 2500
F 0 "Y1" H 3150 2600 50  0000 C CNN
F 1 "6MHz" H 3150 2400 50  0000 C CNN
F 2 "Crystals:Crystal_HC49-U_Vertical" H 3150 2500 50  0001 C CNN
F 3 "" H 3150 2500 50  0001 C CNN
	1    3150 2500
	-1   0    0    1   
$EndComp
Wire Wire Line
	3700 2400 3400 2400
Wire Wire Line
	3400 2400 3400 2600
Wire Wire Line
	3400 2500 3250 2500
Wire Wire Line
	3700 2300 2850 2300
Wire Wire Line
	2850 2300 2850 2600
Wire Wire Line
	2850 2500 3050 2500
$Comp
L C_Small C6
U 1 1 592344B0
P 2850 2700
F 0 "C6" H 2860 2770 50  0000 L CNN
F 1 "22" H 2860 2620 50  0000 L CNN
F 2 "Capacitors_ThroughHole:C_Disc_D3_P2.5" H 2850 2700 50  0001 C CNN
F 3 "" H 2850 2700 50  0001 C CNN
	1    2850 2700
	1    0    0    -1  
$EndComp
$Comp
L C_Small C9
U 1 1 592345DA
P 3400 2700
F 0 "C9" H 3410 2770 50  0000 L CNN
F 1 "22" H 3410 2620 50  0000 L CNN
F 2 "Capacitors_ThroughHole:C_Disc_D3_P2.5" H 3400 2700 50  0001 C CNN
F 3 "" H 3400 2700 50  0001 C CNN
	1    3400 2700
	1    0    0    -1  
$EndComp
Connection ~ 2850 2500
Connection ~ 3400 2500
Wire Wire Line
	3400 2800 3400 2900
Wire Wire Line
	2850 2900 3600 2900
Connection ~ 3600 2900
Wire Wire Line
	2850 2800 2850 2900
Connection ~ 3400 2900
$Comp
L PWR_FLAG #FLG022
U 1 1 592355C7
P 3600 1000
F 0 "#FLG022" H 3600 1075 50  0001 C CNN
F 1 "PWR_FLAG" H 3600 1150 50  0000 C CNN
F 2 "" H 3600 1000 50  0001 C CNN
F 3 "" H 3600 1000 50  0001 C CNN
	1    3600 1000
	1    0    0    -1  
$EndComp
$Comp
L PWR_FLAG #FLG023
U 1 1 59235765
P 2300 2100
F 0 "#FLG023" H 2300 2175 50  0001 C CNN
F 1 "PWR_FLAG" H 2300 2250 50  0000 C CNN
F 2 "" H 2300 2100 50  0001 C CNN
F 3 "" H 2300 2100 50  0001 C CNN
	1    2300 2100
	1    0    0    -1  
$EndComp
Wire Wire Line
	2300 2200 2300 2100
Connection ~ 2500 2200
$Comp
L PWR_FLAG #FLG024
U 1 1 59235C24
P 6950 5500
F 0 "#FLG024" H 6950 5575 50  0001 C CNN
F 1 "PWR_FLAG" H 6950 5650 50  0000 C CNN
F 2 "" H 6950 5500 50  0001 C CNN
F 3 "" H 6950 5500 50  0001 C CNN
	1    6950 5500
	1    0    0    -1  
$EndComp
Wire Wire Line
	6950 5500 6950 5600
Connection ~ 6950 5600
Wire Wire Line
	4100 5800 4750 5800
Wire Wire Line
	4750 5800 4750 5900
Wire Wire Line
	4750 5900 5950 5900
Wire Wire Line
	4000 5900 4600 5900
Wire Wire Line
	4600 5900 4600 5850
Wire Wire Line
	4600 5850 5400 5850
Wire Wire Line
	5400 5850 5400 5800
Wire Wire Line
	5400 5800 5950 5800
Wire Wire Line
	8750 1250 8750 1400
Connection ~ 8750 1400
Connection ~ 8350 1400
Connection ~ 1400 1900
Wire Wire Line
	1400 1800 1400 2000
Wire Wire Line
	1900 1900 1400 1900
$Comp
L C_Small C1
U 1 1 59226B2A
P 1400 1700
F 0 "C1" H 1410 1770 50  0000 L CNN
F 1 "0.1" H 1410 1620 50  0000 L CNN
F 2 "Capacitors_SMD:C_1206_HandSoldering" H 1400 1700 50  0001 C CNN
F 3 "" H 1400 1700 50  0001 C CNN
	1    1400 1700
	1    0    0    -1  
$EndComp
$Comp
L CP_Small C2
U 1 1 59226D61
P 1900 1700
F 0 "C2" H 1910 1770 50  0000 L CNN
F 1 "22.0" H 1910 1620 50  0000 L CNN
F 2 "Capacitors_Tantalum_SMD:TantalC_SizeD_EIA-7343_HandSoldering" H 1900 1700 50  0001 C CNN
F 3 "" H 1900 1700 50  0001 C CNN
	1    1900 1700
	1    0    0    -1  
$EndComp
$Comp
L CONN_01X04 P1
U 1 1 5924A65B
P 1100 1350
F 0 "P1" H 1100 1600 50  0000 C CNN
F 1 "USB" V 1200 1350 50  0000 C CNN
F 2 "Pin_Headers:Pin_Header_Straight_1x04" H 1100 1350 50  0001 C CNN
F 3 "" H 1100 1350 50  0000 C CNN
	1    1100 1350
	-1   0    0    1   
$EndComp
$EndSCHEMATC
